{
  "type": "object",
  "required" : [
    "id",
    "user_id",
    "only_me",
    "name",
    "user_name",
    "user_email",
    "favorite_lists"
  ],
  "properties" : {
    "id" : { "type" : "integer" },
    "user_id" : { "type" : "integer" },
    "only_me" : { "type" : "bollean" },
    "name" : { "type" : "string" },
    "user_name" : { "type" : "string" },
    "user_email" : { "type" : "string" },
    "favorite_lists" : { "type" : "Array" }
  }
}