{
  "type": "object",
  "required": ["errors"],
  "properties": {
    "errors" : {
      "type" : "object",
      "required" : [
        "name",
        "user",
        "only_me"
      ],
      "properties" : {
        "name" : { "type" : "array" },
        "user" : { "type" : "array" },
        "only_me" : { "type" : "array" }
      }
    }
  }
}